%YAML 1.1
%TAG !u! tag:unity3d.com,2011:
--- !u!114 &11400000
MonoBehaviour:
  m_ObjectHideFlags: 0
  m_CorrespondingSourceObject: {fileID: 0}
  m_PrefabInstance: {fileID: 0}
  m_PrefabAsset: {fileID: 0}
  m_GameObject: {fileID: 0}
  m_Enabled: 1
  m_EditorHideFlags: 0
  m_Script: {fileID: 11500000, guid: 7138a939c4e84f84694493601aa0eed7, type: 3}
  m_Name: Purrs
  m_EditorClassIdentifier: 
  description: "\u041C\u0443\u0440\u043B\u044B\u0447\u0435\u0442"
  _indexAction: 1
  _nextState: {fileID: 11400000, guid: 085891a669daa2048abde7c26e79ef0e, type: 2}
