%YAML 1.1
%TAG !u! tag:unity3d.com,2011:
--- !u!114 &11400000
MonoBehaviour:
  m_ObjectHideFlags: 0
  m_CorrespondingSourceObject: {fileID: 0}
  m_PrefabInstance: {fileID: 0}
  m_PrefabAsset: {fileID: 0}
  m_GameObject: {fileID: 0}
  m_Enabled: 1
  m_EditorHideFlags: 0
  m_Script: {fileID: 11500000, guid: 90c1b7e0c8833824187cc60845e64695, type: 3}
  m_Name: Particle Data Down
  m_EditorClassIdentifier: 
  countParticles: 500
  gravity: 0.1
  startColor: {r: 0.08223568, g: 0.5283019, b: 0.10308888, a: 1}
  endColor: {r: 0.0055624777, g: 0.23584908, b: 0.0113667175, a: 0.6862745}
  material: {fileID: 2100000, guid: 8350849aae5998e4ca0f12fcd3e9c157, type: 2}
