%YAML 1.1
%TAG !u! tag:unity3d.com,2011:
--- !u!114 &11400000
MonoBehaviour:
  m_ObjectHideFlags: 0
  m_CorrespondingSourceObject: {fileID: 0}
  m_PrefabInstance: {fileID: 0}
  m_PrefabAsset: {fileID: 0}
  m_GameObject: {fileID: 0}
  m_Enabled: 1
  m_EditorHideFlags: 0
  m_Script: {fileID: 11500000, guid: 2af41b8c30de8864b8c1d78c5376f5a5, type: 3}
  m_Name: Eats Everything
  m_EditorClassIdentifier: 
  description: "\u0412\u0441\u0451 \u0441\u044A\u0435\u0434\u0430\u0435\u0442, \u043D\u043E
    \u0435\u0441\u043B\u0438 \u0432 \u044D\u0442\u043E \u0432\u0440\u0435\u043C\u044F
    \u043F\u043E\u0434\u043E\u0439\u0442\u0438 - \u043F\u043E\u0446\u0430\u0440\u0430\u043F\u0430\u0435\u0442"
  _indexAction: 2
  _nextState: {fileID: 11400000, guid: a643be8079ee78d4d808160790b757a4, type: 2}
