%YAML 1.1
%TAG !u! tag:unity3d.com,2011:
--- !u!1045 &1
EditorBuildSettings:
  m_ObjectHideFlags: 0
  serializedVersion: 2
  m_Scenes:
  - enabled: 1
    path: Assets/Scenes/LoadingLobby.unity
    guid: 6e03ee9c5f9cbc14da6e986b73b9c491
  - enabled: 1
    path: Assets/Scenes/Game.unity
    guid: b00599bac41231045b344809a023fce1
  m_configObjects: {}
